{
  "project_info": {
    "project_number": "1022753028650",
    "project_id": "ism-project-df4d9",
    "storage_bucket": "ism-project-df4d9.appspot.com"
  },
  "client": [
    {
      "client_info": {
        "mobilesdk_app_id": "1:1022753028650:android:d3c9e73c56124b341c6153",
        "android_client_info": {
          "package_name": "com.example.first_project_flutter"
        }
      },
      "oauth_client": [
        {
          "client_id": "1022753028650-2oqo9meukpuk76jrrma4i74pn65qg70m.apps.googleusercontent.com",
          "client_type": 3
        }
      ],
      "api_key": [
        {
          "current_key": "AIzaSyAEA1bX8i0Qyxl5NNH_C_XQNnK3XI9cJy0"
        }
      ],
      "services": {
        "appinvite_service": {
          "other_platform_oauth_client": [
            {
              "client_id": "1022753028650-2oqo9meukpuk76jrrma4i74pn65qg70m.apps.googleusercontent.com",
              "client_type": 3
            }
          ]
        }
      }
    }
  ],
  "configuration_version": "1"
}